<svg width="15" height="14" viewBox="0 0 15 14" fill="none" xmlns="http://www.w3.org/2000/svg">
<path d="M7.49333 0.333313C3.81333 0.333313 0.82666 3.31998 0.82666 6.99998C0.82666 10.68 3.81333 13.6666 7.49333 13.6666C11.1733 13.6666 14.16 10.68 14.16 6.99998C14.16 3.31998 11.1733 0.333313 7.49333 0.333313ZM9.89999 4.55998C10.6133 4.55998 11.1867 5.13331 11.1867 5.84665C11.1867 6.55998 10.6133 7.13331 9.89999 7.13331C9.18666 7.13331 8.61333 6.55998 8.61333 5.84665C8.60666 5.13331 9.18666 4.55998 9.89999 4.55998ZM5.89999 3.50665C6.76666 3.50665 7.47333 4.21331 7.47333 5.07998C7.47333 5.94665 6.76666 6.65331 5.89999 6.65331C5.03333 6.65331 4.32666 5.94665 4.32666 5.07998C4.32666 4.20665 5.02666 3.50665 5.89999 3.50665ZM5.89999 9.59331V12.0933C4.29999 11.5933 3.03333 10.36 2.47333 8.78665C3.17333 8.03998 4.91999 7.65998 5.89999 7.65998C6.25333 7.65998 6.69999 7.71331 7.16666 7.80665C6.07333 8.38665 5.89999 9.15331 5.89999 9.59331ZM7.49333 12.3333C7.31333 12.3333 7.13999 12.3266 6.96666 12.3066V9.59331C6.96666 8.64665 8.92666 8.17331 9.89999 8.17331C10.6133 8.17331 11.8467 8.43331 12.46 8.93998C11.68 10.92 9.75333 12.3333 7.49333 12.3333Z" fill="white"/>
</svg>
