<svg width="186" height="410" viewBox="0 0 186 410" fill="none" xmlns="http://www.w3.org/2000/svg">
<path opacity="0.1" fill-rule="evenodd" clip-rule="evenodd" d="M3.63222 224.89C0.257579 185.526 22.099 150.266 40.543 115.369C61.7876 75.1729 75.4024 21.7688 118.472 7.6063C161.539 -6.55548 204.956 26.5069 244.795 48.2047C277.417 65.9722 300.174 93.8683 325.996 120.633C356.475 152.224 399.926 175.59 409.173 218.581C419.059 264.54 408.469 318.377 375.768 352.026C344.087 384.626 291.559 375.731 247.197 385.253C209.513 393.342 172.477 415.689 135.896 403.516C99.5611 391.424 81.1304 353.234 58.2906 322.388C35.5736 291.708 6.89747 262.978 3.63222 224.89Z" fill="#89ADF5"/>
</svg>
